…
Combined scores, sorting by best CRPS score (using `neg_crps` so that
bigger is better in both cases)

``` r
combined <- scores_crps %>% 
  mutate(neg_crps = - score) %>% 
  select(-score) %>%
  left_join(eq27, by="id") %>%
  rename(eq27 = score) %>%
  arrange(desc(neg_crps))

combined
```

    ## # A tibble: 270 x 3
    ##    id            neg_crps    eq27
    ##    <chr>            <dbl>   <dbl>
    ##  1 DELA-2019-May   -0.143 -0.201 
    ##  2 JORN-2019-Oct   -0.187  0.203 
    ##  3 JORN-2019-Apr   -0.210  0.216 
    ##  4 HEAL-2019-Aug   -0.223  0.0485
    ##  5 DEJU-2019-Aug   -0.240 -0.353 
    ##  6 BONA-2019-Jul   -0.244 -0.25  
    ##  7 SJER-2019-Mar   -0.268 -0.894 
    ##  8 SOAP-2019-May   -0.293 -0.153 
    ##  9 JORN-2019-May   -0.297 -0.158 
    ## 10 CLBJ-2019-Sep   -0.298 -0.5   
    ## # … with 260 more rows

Best-predicted observations:

``` r
# CRPS, small is best
scores_crps %>% arrange(score)
```

    ## # A tibble: 270 x 2
    ##    id            score
    ##    <chr>         <dbl>
    ##  1 DELA-2019-May 0.143
    ##  2 JORN-2019-Oct 0.187
    ##  3 JORN-2019-Apr 0.210
    ##  4 HEAL-2019-Aug 0.223
    ##  5 DEJU-2019-Aug 0.240
    ##  6 BONA-2019-Jul 0.244
    ##  7 SJER-2019-Mar 0.268
    ##  8 SOAP-2019-May 0.293
    ##  9 JORN-2019-May 0.297
    ## 10 CLBJ-2019-Sep 0.298
    ## # … with 260 more rows

``` r
# eq27: Bigger is better:
eq27 %>% arrange(desc(score))
```

    ## # A tibble: 260 x 2
    ##    id              score
    ##    <chr>           <dbl>
    ##  1 JORN-2019-Apr  0.216 
    ##  2 JORN-2019-Oct  0.203 
    ##  3 HEAL-2019-Aug  0.0485
    ##  4 SOAP-2019-May -0.153 
    ##  5 JORN-2019-May -0.158 
    ##  6 DELA-2019-May -0.201 
    ##  7 BONA-2019-Jul -0.25  
    ##  8 ABBY-2019-Sep -0.267 
    ##  9 BARR-2019-Jul -0.269 
    ## 10 MOAB-2019-May -0.291 
    ## # … with 250 more rows

Worst-predicted:

``` r
scores_crps %>% arrange(desc(score))
```

    ## # A tibble: 270 x 2
    ##    id            score
    ##    <chr>         <dbl>
    ##  1 NOGP-2019-Aug  8.90
    ##  2 KONA-2019-Sep  8.12
    ##  3 STEI-2019-Oct  7.75
    ##  4 SERC-2019-Jun  7.40
    ##  5 CPER-2019-Oct  7   
    ##  6 WOOD-2019-Sep  6.22
    ##  7 SCBI-2019-Sep  6.14
    ##  8 SERC-2019-Aug  6.07
    ##  9 LENO-2019-May  5.81
    ## 10 NIWO-2019-Jun  5.74
    ## # … with 260 more rows

``` r
eq27 %>% arrange(score)
```

    ## # A tibble: 260 x 2
    ##    id            score
    ##    <chr>         <dbl>
    ##  1 KONA-2019-Sep -42.8
    ##  2 BONA-2019-Jun -42.2
    ##  3 DEJU-2019-May -40.2
    ##  4 YELL-2019-Jul -26.2
    ##  5 ABBY-2019-Jul -21.7
    ##  6 STEI-2019-Oct -20.6
    ##  7 NOGP-2019-Aug -19.4
    ##  8 SOAP-2019-Jul -17.6
    ##  9 GRSM-2019-May -16.1
    ## 10 RMNP-2019-Jul -13  
    ## # … with 250 more rows
