…
``` r
richness <- beetles %>%  
  select(taxonID, siteID, collectDate, month, year) %>%
  distinct() %>%
  count(siteID, collectDate, month, year)

richness
```

    ## # A tibble: 2,188 x 5
    ##    siteID collectDate month  year     n
    ##    <chr>  <date>      <ord> <dbl> <int>
    ##  1 ABBY   2016-09-13  Sep    2016    14
    ##  2 ABBY   2016-09-27  Sep    2016    13
    ##  3 ABBY   2017-05-03  May    2017    10
    ##  4 ABBY   2017-05-17  May    2017    19
    ##  5 ABBY   2017-05-31  May    2017    19
    ##  6 ABBY   2017-06-14  Jun    2017    18
    ##  7 ABBY   2017-06-28  Jun    2017    22
    ##  8 ABBY   2017-07-12  Jul    2017    15
    ##  9 ABBY   2017-07-26  Jul    2017    14
    ## 10 ABBY   2017-08-09  Aug    2017    11
    ## # … with 2,178 more rows
…
counts <- beetles %>%  
#  group_by(scientificName, collectDate, siteID) %>%
  group_by(collectDate, siteID, year, month) %>%
    summarize(count = sum(individualCount, na.rm = TRUE))

cpue <- counts %>% 
  left_join(effort) %>% 
  mutate(cpue = count / trapnights) %>% ungroup()


cpue 
```

    ## # A tibble: 2,188 x 7
    ##    collectDate siteID  year month count trapnights   cpue
    ##    <date>      <chr>  <dbl> <ord> <dbl>      <int>  <dbl>
    ##  1 2013-07-01  CPER    2013 Jul       1         14 0.0714
    ##  2 2013-07-03  CPER    2013 Jul    2379        560 4.25  
    ##  3 2013-07-10  STER    2013 Jul      35        112 0.312 
    ##  4 2013-07-15  HARV    2013 Jul      87        238 0.366 
    ##  5 2013-07-16  HARV    2013 Jul      47        189 0.249 
    ##  6 2013-07-17  CPER    2013 Jul    4996        560 8.92  
    ##  7 2013-07-24  STER    2013 Jul      56        168 0.333 
    ##  8 2013-07-29  HARV    2013 Jul      20        154 0.130 
    ##  9 2013-07-30  HARV    2013 Jul      70        224 0.312 
    ## 10 2013-07-31  CPER    2013 Jul    2445        560 4.37  
    ## # … with 2,178 more rows
…
    ## `summarise()` regrouping output by 'month' (override with `.groups` argument)

``` r
null_richness
```

    ## # A tibble: 270 x 5
    ##    month siteID  mean    sd  year
    ##    <ord> <chr>  <dbl> <dbl> <dbl>
    ##  1 Jan   SJER    3.5   1.29  2019
    ##  2 Feb   SJER    2.75  0.5   2019
    ##  3 Feb   STER    1.25  0.5   2019
    ##  4 Mar   BLAN    2     1.79  2019
    ##  5 Mar   CLBJ    5     3.16  2019
    ##  6 Mar   DELA    3     1.79  2019
    ##  7 Mar   DSNY    8     1.79  2019
    ##  8 Mar   JERC    4     1.79  2019
    ##  9 Mar   JORN    2     1.79  2019
    ## 10 Mar   ORNL    7     2.83  2019
    ## # … with 260 more rows
…
